module github.com/AnhellO/go-experiments

go 1.14

require (
	contrib.go.opencensus.io/exporter/stackdriver v0.6.0 // indirect
	git.apache.org/thrift.git v0.0.0-20180924222215-a9235805469b // indirect
	github.com/antchfx/htmlquery v1.2.3
	github.com/aws/aws-sdk-go v1.34.28 // indirect
	github.com/brianvoe/gofakeit v3.18.0+incompatible // indirect
	github.com/brianvoe/gofakeit/v5 v5.10.1
	github.com/cockroachdb/cockroach-go v0.0.0-20181001143604-e0a95dfd547c // indirect
	github.com/cznic/ql v1.2.0 // indirect
	github.com/dgrijalva/jwt-go v3.2.0+incompatible
	github.com/fiorix/wsdl2go v1.4.7
	github.com/fsnotify/fsnotify v1.4.9
	github.com/go-chi/chi v4.1.2+incompatible
	github.com/go-chi/jwtauth v4.0.4+incompatible
	github.com/go-ini/ini v1.39.0 // indirect
	github.com/golang-migrate/migrate/v4 v4.15.1
	github.com/golang/lint v0.0.0-20180702182130-06c8688daad7 // indirect
	github.com/google/go-github v17.0.0+incompatible // indirect
	github.com/googleapis/gax-go v2.0.0+incompatible // indirect
	github.com/gorilla/context v1.1.1
	github.com/gorilla/mux v1.8.0
	github.com/gotestyourself/gotestyourself v2.1.0+incompatible // indirect
	github.com/hashicorp/errwrap v1.1.0 // indirect
	github.com/hashicorp/go-multierror v1.1.1 // indirect
	github.com/hooklift/gowsdl v0.4.0
	github.com/jackc/fake v0.0.0-20150926172116-812a484cc733 // indirect
	github.com/jackc/pgx v3.2.0+incompatible // indirect
	github.com/jung-kurt/gofpdf v1.16.2
	github.com/kshvakov/clickhouse v1.3.4 // indirect
	github.com/labstack/echo v3.3.10+incompatible
	github.com/labstack/gommon v0.3.0 // indirect
	github.com/mitchellh/mapstructure v1.3.3
	github.com/natefinch/lumberjack v2.0.0+incompatible
	github.com/openzipkin/zipkin-go v0.1.1 // indirect
	github.com/streadway/amqp v1.0.0
	github.com/stretchr/testify v1.7.0
	github.com/valyala/fasttemplate v1.2.1 // indirect
	github.com/xdg/scram v0.0.0-20180814205039-7eeb5667e42c // indirect
	github.com/xdg/stringprep v0.0.0-20180714160509-73f8eece6fdc // indirect
	go.mongodb.org/mongo-driver v1.7.0
	go.uber.org/atomic v1.9.0 // indirect
	go.uber.org/multierr v1.7.0 // indirect
	go.uber.org/zap v1.19.1
	golang.org/x/tour v0.0.0-20201007071457-6f9d4ff994b1
	gopkg.in/ini.v1 v1.39.0 // indirect
	gopkg.in/mgo.v2 v2.0.0-20190816093944-a6b53ec6cb22 // indirect
)
